…
# Part 1 - Univariate Option 1: Comparing Life Expectancies over Time

Full dataframe for reference...


```r
gapminder
```

```
## # A tibble: 1,704 x 6
##    country     continent  year lifeExp      pop gdpPercap
##    <fct>       <fct>     <int>   <dbl>    <int>     <dbl>
##  1 Afghanistan Asia       1952    28.8  8425333      779.
##  2 Afghanistan Asia       1957    30.3  9240934      821.
##  3 Afghanistan Asia       1962    32.0 10267083      853.
##  4 Afghanistan Asia       1967    34.0 11537966      836.
##  5 Afghanistan Asia       1972    36.1 13079460      740.
##  6 Afghanistan Asia       1977    38.4 14880372      786.
##  7 Afghanistan Asia       1982    39.9 12881816      978.
##  8 Afghanistan Asia       1987    40.8 13867957      852.
##  9 Afghanistan Asia       1992    41.7 16317921      649.
## 10 Afghanistan Asia       1997    41.8 22227415      635.
## # … with 1,694 more rows
```
…
```r
gapminder %>% 
  filter(country == "China" | country == "Taiwan") %>% 
  select(country, year, lifeExp) %>% 
  pivot_wider(id_cols = year,
              names_from = country,
              values_from = lifeExp) %>% 
  pivot_longer(cols = c(China, Taiwan), #compressing our country columns
               names_to = "country", #creating new country column for the two countries
               values_to = "lifeExp") #directing values to new lifeExp column
```

```
## # A tibble: 24 x 3
##     year country lifeExp
##    <int> <chr>     <dbl>
##  1  1952 China      44  
##  2  1952 Taiwan     58.5
##  3  1957 China      50.5
##  4  1957 Taiwan     62.4
##  5  1962 China      44.5
##  6  1962 Taiwan     65.2
##  7  1967 China      58.4
##  8  1967 Taiwan     67.5
##  9  1972 China      63.1
## 10  1972 Taiwan     69.4
## # … with 14 more rows
```
…
```r
gapminder %>% 
  filter(country == "China" | country == "Taiwan") %>% 
  select(country, year, lifeExp, gdpPercap) %>% 
  pivot_wider(id_cols = year,
              names_from = country,
              names_sep = "--",
              values_from = c(lifeExp, gdpPercap)) %>% 
  pivot_longer(cols = -year, #selecting all columns except year to compress
               names_sep = "--", #identifying what separates the components embedded in the columns
               names_to = c(".value", "country")) #directing new columns and their content
```

```
## # A tibble: 24 x 4
##     year country lifeExp gdpPercap
##    <int> <chr>     <dbl>     <dbl>
##  1  1952 China      44        400.
##  2  1952 Taiwan     58.5     1207.
##  3  1957 China      50.5      576.
##  4  1957 Taiwan     62.4     1508.
##  5  1962 China      44.5      488.
##  6  1962 Taiwan     65.2     1823.
##  7  1967 China      58.4      613.
##  8  1967 Taiwan     67.5     2644.
##  9  1972 China      63.1      677.
## 10  1972 Taiwan     69.4     4063.
## # … with 14 more rows
```
…
## 3.1 - Adding Email Addresses to the Guestlist

First, lets exmamine our data files to help with visualizing the code.


```r
guest
```

```
## # A tibble: 30 x 7
##    party name  meal_wedding meal_brunch attendance_wedd… attendance_brun…
##    <dbl> <chr> <chr>        <chr>       <chr>            <chr>           
##  1     1 Somm… PENDING      PENDING     PENDING          PENDING         
##  2     1 Phil… vegetarian   Menu C      CONFIRMED        CONFIRMED       
##  3     1 Blan… chicken      Menu A      CONFIRMED        CONFIRMED       
##  4     1 Emaa… PENDING      PENDING     PENDING          PENDING         
##  5     2 Blai… chicken      Menu C      CONFIRMED        CONFIRMED       
##  6     2 Nige… <NA>         <NA>        CANCELLED        CANCELLED       
##  7     3 Sine… PENDING      PENDING     PENDING          PENDING         
##  8     4 Ayra… vegetarian   Menu B      PENDING          PENDING         
##  9     5 Atla… PENDING      PENDING     PENDING          PENDING         
## 10     5 Denz… fish         Menu B      CONFIRMED        CONFIRMED       
## # … with 20 more rows, and 1 more variable: attendance_golf <chr>
```
…
```r
email_longer <- email %>% 
  separate_rows(guest, sep = ", ") #convert the email list from groups of guests to individual guests
guest %>% 
  left_join(email_longer, c("name" = "guest")) #join into the guest table using guest/name as common reference
```

```
## # A tibble: 30 x 8
##    party name  meal_wedding meal_brunch attendance_wedd… attendance_brun…
##    <dbl> <chr> <chr>        <chr>       <chr>            <chr>           
##  1     1 Somm… PENDING      PENDING     PENDING          PENDING         
##  2     1 Phil… vegetarian   Menu C      CONFIRMED        CONFIRMED       
##  3     1 Blan… chicken      Menu A      CONFIRMED        CONFIRMED       
##  4     1 Emaa… PENDING      PENDING     PENDING          PENDING         
##  5     2 Blai… chicken      Menu C      CONFIRMED        CONFIRMED       
##  6     2 Nige… <NA>         <NA>        CANCELLED        CANCELLED       
##  7     3 Sine… PENDING      PENDING     PENDING          PENDING         
##  8     4 Ayra… vegetarian   Menu B      PENDING          PENDING         
##  9     5 Atla… PENDING      PENDING     PENDING          PENDING         
## 10     5 Denz… fish         Menu B      CONFIRMED        CONFIRMED       
## # … with 20 more rows, and 2 more variables: attendance_golf <chr>,
## #   email <chr>
```
…
## 3.3 - Making a Full Guestlist and Email List


```r
guest %>% 
  full_join(email_longer, c("name" = "guest")) #completely joining tables using name/guest columns as reference
```

```
## # A tibble: 33 x 8
##    party name  meal_wedding meal_brunch attendance_wedd… attendance_brun…
##    <dbl> <chr> <chr>        <chr>       <chr>            <chr>           
##  1     1 Somm… PENDING      PENDING     PENDING          PENDING         
##  2     1 Phil… vegetarian   Menu C      CONFIRMED        CONFIRMED       
##  3     1 Blan… chicken      Menu A      CONFIRMED        CONFIRMED       
##  4     1 Emaa… PENDING      PENDING     PENDING          PENDING         
##  5     2 Blai… chicken      Menu C      CONFIRMED        CONFIRMED       
##  6     2 Nige… <NA>         <NA>        CANCELLED        CANCELLED       
##  7     3 Sine… PENDING      PENDING     PENDING          PENDING         
##  8     4 Ayra… vegetarian   Menu B      PENDING          PENDING         
##  9     5 Atla… PENDING      PENDING     PENDING          PENDING         
## 10     5 Denz… fish         Menu B      CONFIRMED        CONFIRMED       
## # … with 23 more rows, and 2 more variables: attendance_golf <chr>,
## #   email <chr>
```
