STAT545 Assignment 5: Factor and Figure Management
…
Exercise 3: File Input / Output

To reduce the size of the data were working with, I chose to use Life Expectancy. I was born in 1997 in North America, so lets examine Life Expectancies in the Americas is the year 1997. First well filter the data set, then well write this into its own .csv file, then read this dataframe, and finally generate two plots: one from the original gapminder dataframe and one from the new dataframe, in order to evaluate the input/output process.

(gapminder_Amer <- gapminder %>% 
   filter(continent == "Americas", year == "1997") %>%
   select(country, lifeExp) %>%
   group_by(country))

## # A tibble: 25 x 2
## # Groups:   country [25]
##    country            lifeExp
##    <fct>                <dbl>
##  1 Argentina             73.3
##  2 Bolivia               62.0
##  3 Brazil                69.4
##  4 Canada                78.6
##  5 Chile                 75.8
##  6 Colombia              70.3
##  7 Costa Rica            77.3
##  8 Cuba                  76.2
##  9 Dominican Republic    70.0
## 10 Ecuador               72.3
## #  with 15 more rows

datatable(gapminder_Amer)

write_csv(gapminder_Amer, here::here("Hw05", "lifeExpAmer.csv"))
(lifeExpAmer <- read_csv(here::here("Hw05", "lifeExpAmer.csv")))

## Parsed with column specification:
## cols(
##   country = col_character(),
##   lifeExp = col_double()
## )

## # A tibble: 25 x 2
##    country            lifeExp
##    <chr>                <dbl>
##  1 Argentina             73.3
##  2 Bolivia               62.0
##  3 Brazil                69.4
##  4 Canada                78.6
##  5 Chile                 75.8
##  6 Colombia              70.3
##  7 Costa Rica            77.3
##  8 Cuba                  76.2
##  9 Dominican Republic    70.0
## 10 Ecuador               72.3
## #  with 15 more rows
…
