…
```r
knitr::opts_chunk$set(echo = TRUE)
```



# Task 1 - Low Life Expectancies within Continents over time: 


```r
gapminder
```

```
## # A tibble: 1,704 x 6
##    country     continent  year lifeExp      pop gdpPercap
##    <fct>       <fct>     <int>   <dbl>    <int>     <dbl>
##  1 Afghanistan Asia       1952    28.8  8425333      779.
##  2 Afghanistan Asia       1957    30.3  9240934      821.
##  3 Afghanistan Asia       1962    32.0 10267083      853.
##  4 Afghanistan Asia       1967    34.0 11537966      836.
##  5 Afghanistan Asia       1972    36.1 13079460      740.
##  6 Afghanistan Asia       1977    38.4 14880372      786.
##  7 Afghanistan Asia       1982    39.9 12881816      978.
##  8 Afghanistan Asia       1987    40.8 13867957      852.
##  9 Afghanistan Asia       1992    41.7 16317921      649.
## 10 Afghanistan Asia       1997    41.8 22227415      635.
## # ... with 1,694 more rows
```
…
#### Average life expactancy appears to be about 61.5 years in the year 1982. Low life expectancy can be defined as any life expectancy one standard deviation below the mean, representing the lower 32% of the population. As a absolute value, this is 50.7 years.

## 1.1 - Tibble: 


```r
gapminder %>% 
  mutate(smallLifeExp = lifeExp < 50.7) %>% 
  group_by(continent, year) %>% 
  tally(smallLifeExp)
```

```
## # A tibble: 60 x 3
## # Groups:   continent [5]
##    continent  year     n
##    <fct>     <int> <int>
##  1 Africa     1952    50
##  2 Africa     1957    50
##  3 Africa     1962    47
##  4 Africa     1967    42
##  5 Africa     1972    37
##  6 Africa     1977    29
##  7 Africa     1982    26
##  8 Africa     1987    22
##  9 Africa     1992    22
## 10 Africa     1997    21
## # ... with 50 more rows
```
…
